{"links": {"next": "http://moviesminidatabase.p.rapidapi.com/movie/order/byPopularity/?page=2", "previous": null}, "count": 9949, "results": [{"imdb_id": "tt0104040", "title": "The Cutting Edge", "popularity": 5000}, {"imdb_id": "tt5566790", "title": "A Futile and Stupid Gesture", "popularity": 4999}, {"imdb_id": "tt9735318", "title": "The Beatles: Get Back", "popularity": 4998}, {"imdb_id": "tt0101700", "title": "Delicatessen", "popularity": 4997}, {"imdb_id": "tt10767168", "title": "La llorona", "popularity": 4996}, {"imdb_id": "tt0077523", "title": "Every Which Way but Loose", "popularity": 4995}, {"imdb_id": "tt0356680", "title": "The Family Stone", "popularity": 4994}, {"imdb_id": "tt0328099", "title": "Malibu's Most Wanted", "popularity": 4993}, {"imdb_id": "tt0418689", "title": "Flags of Our Fathers", "popularity": 4992}, {"imdb_id": "tt3385524", "title": "Stan & Ollie", "popularity": 4991}, {"imdb_id": "tt1216487", "title": "Flickan som lekte med elden", "popularity": 4990}, {"imdb_id": "tt3312180", "title": "The Last Man", "popularity": 4989}, {"imdb_id": "tt3247714", "title": "Survivor", "popularity": 4988}, {"imdb_id": "tt1698641", "title": "Alexander and the Terrible, Horrible, No Good, Very Bad Day", "popularity": 4987}, {"imdb_id": "tt0073802", "title": "Three Days of the Condor", "popularity": 4986}, {"imdb_id": "tt6760876", "title": "Wasp Network", "popularity": 4985}, {"imdb_id": "tt6211976", "title": "A Vigilante", "popularity": 4984}, {"imdb_id": "tt0361467", "title": "Confessions of a Teenage Drama Queen", "popularity": 4982}, {"imdb_id": "tt0247425", "title": "In the Bedroom", "popularity": 4981}, {"imdb_id": "tt2788732", "title": "Pete's Dragon", "popularity": 4980}, {"imdb_id": "tt8820590", "title": "T-34", "popularity": 4979}, {"imdb_id": "tt0335438", "title": "Starsky & Hutch", "popularity": 4978}, {"imdb_id": "tt1441952", "title": "Salmon Fishing in the Yemen", "popularity": 4977}, {"imdb_id": "tt0086312", "title": "Silkwood", "popularity": 4976}, {"imdb_id": "tt0806203", "title": "Carriers", "popularity": 4975}, {"imdb_id": "tt1625346", "title": "Young Adult", "popularity": 4974}, {"imdb_id": "tt0079261", "title": "Hair", "popularity": 4973}, {"imdb_id": "tt0117438", "title": "Ransom", "popularity": 4972}, {"imdb_id": "tt0120749", "title": "Mercury Rising", "popularity": 4971}, {"imdb_id": "tt0100828", "title": "The Two Jakes", "popularity": 4970}, {"imdb_id": "tt0423294", "title": "Surf's Up", "popularity": 4969}, {"imdb_id": "tt0098621", "title": "The War of the Roses", "popularity": 4968}, {"imdb_id": "tt0460890", "title": "The Only Living Boy in New York", "popularity": 4967}, {"imdb_id": "tt0304415", "title": "Mona Lisa Smile", "popularity": 4966}, {"imdb_id": "tt5001754", "title": "Braven", "popularity": 4965}, {"imdb_id": "tt0272020", "title": "The Last Castle", "popularity": 4962}, {"imdb_id": "tt0223897", "title": "Pay It Forward", "popularity": 4961}, {"imdb_id": "tt0343663", "title": "Eros", "popularity": 4960}, {"imdb_id": "tt0164114", "title": "Drive Me Crazy", "popularity": 4959}, {"imdb_id": "tt11719648", "title": "Vento Seco", "popularity": 4958}, {"imdb_id": "tt1667354", "title": "The Painted Bird", "popularity": 4956}, {"imdb_id": "tt0082640", "title": "Lady Chatterley's Lover", "popularity": 4955}, {"imdb_id": "tt2513074", "title": "Billy Lynn's Long Halftime Walk", "popularity": 4954}, {"imdb_id": "tt0078767", "title": "The Amityville Horror", "popularity": 4953}, {"imdb_id": "tt1741273", "title": "Secret in Their Eyes", "popularity": 4952}, {"imdb_id": "tt0356634", "title": "Garfield", "popularity": 4951}, {"imdb_id": "tt0118998", "title": "Doctor Dolittle", "popularity": 4950}, {"imdb_id": "tt0081071", "title": "The Long Riders", "popularity": 4949}, {"imdb_id": "tt0164181", "title": "Stir of Echoes", "popularity": 4948}, {"imdb_id": "tt1648216", "title": "Tres metros sobre el cielo", "popularity": 4947}]}